{
    "resources" : [
        {   "resource" : "import/donations.csv",
            "delimiter": ";",
            "conditionMappings": [
                {"name": "type_indicator", "column": "Type"}
            ],
            "labels" : [
                {
                    "name": "Person.1",
                    "mappings" : [
                        {"name": "person", "column": "Person"}
                    ],
                    "identifiers": ["person"],
                    "update_strategy":  "merge"
                },
                {
                    "name": "Person.2",
                    "condition": "type_indicator=SD",
                    "mappings" : [
                        {"name": "person", "column": "Entity"}
                    ],
                    "identifiers": ["person"],
                    "update_strategy": "merge"
                },
                {
                    "name": "Charity",
                    "condition": "type_indicator=DD",
                    "mappings" : [
                        {"name": "charity", "column": "Entity"}
                    ],
                    "identifiers": ["charity"],
                    "update_strategy": "merge"
                },
                {
                    "name": "Charity",
                    "condition": "type_indicator=FR",
                    "mappings" : [
                        {"name": "charity", "column": "Entity"}
                    ],
                    "identifiers": ["charity"],
                    "update_strategy": "merge"
                }
            ],
            "edges": [
                { "name": "fundraises", "source": "Person.1", "target": "Charity", "update_strategy": "version", "condition": "type_indicator=FR" },
                { "name": "donates", "source": "Person.1", "target": "Charity", "update_strategy": "version", "condition": "type_indicator=DD" },
                { "name": "sponsors", "source": "Person.1", "target": "Person.2", "update_strategy": "version", "condition": "type_indicator=SD" }
            ]
        }
    ]    
}