{
    "resources" : [
        {   "resource" : "import/friends.csv",
            "delimiter": ";",
            "labels" : [
                {   "name": "Person.1",
                    "mappings" : [
                        {"name": "name", "column": "Name1"}
                    ],
                    "identifiers": ["name"],
                    "update_strategy":  "merge"
                },
                {   "name": "Person.2",
                    "mappings" : [
                        {"name": "name", "column": "Name2"}
                    ],
                    "identifiers": ["name"],
                    "update_strategy":  "merge"
                }
            ],
            "edges": [
                {"name": "friend_of", "source":"Person.1", "target":"Person.2", "update_strategy": "version"}
            ]
        }
    ]
}